Library\Bee\artifacts\mvdfrm\Unity.2D.Sprite.Editor.ref.dll_DDBAA27A82CE9E28.mvfrm
Library\Bee\artifacts\mvdfrm\UnityEditor.TestRunner.ref.dll_193EC4CE382CBFB3.mvfrm
Library\Bee\artifacts\mvdfrm\UnityEditor.UI.ref.dll_4C98D3F7040CD4F5.mvfrm
Library\Bee\artifacts\mvdfrm\UnityEngine.TestRunner.ref.dll_E55D0F7C63F01D9E.mvfrm
Library\Bee\artifacts\mvdfrm\UnityEngine.UI.ref.dll_08FEAA520A2EFD60.mvfrm
Library\Bee\artifacts\mvdfrm\UnityEditor.Graphs.dll_3CA87AE710039B1E.mvfrm
Library\Bee\artifacts\mvdfrm\UnityEditor.CoreModule.dll_E76A7450E7FCFCEC.mvfrm
Library\Bee\artifacts\mvdfrm\UnityEditor.DeviceSimulatorModule.dll_E459A4175792D895.mvfrm
Library\Bee\artifacts\mvdfrm\UnityEditor.DiagnosticsModule.dll_5A5280115B8F5DA3.mvfrm
Library\Bee\artifacts\mvdfrm\UnityEditor.dll_6FB6E64EBCA298E9.mvfrm
Library\Bee\artifacts\mvdfrm\UnityEditor.EditorToolbarModule.dll_87BC6F1597B445C5.mvfrm
Library\Bee\artifacts\mvdfrm\UnityEditor.GraphViewModule.dll_CDAE2D10F810AB1A.mvfrm
Library\Bee\artifacts\mvdfrm\UnityEditor.PresetsUIModule.dll_891465F2FA69031F.mvfrm
Library\Bee\artifacts\mvdfrm\UnityEditor.QuickSearchModule.dll_E562011EB46659FC.mvfrm
Library\Bee\artifacts\mvdfrm\UnityEditor.SceneTemplateModule.dll_AB5BDFD396A0EFFD.mvfrm
Library\Bee\artifacts\mvdfrm\UnityEditor.SceneViewModule.dll_0C5E1018ED337828.mvfrm
Library\Bee\artifacts\mvdfrm\UnityEditor.TextCoreFontEngineModule.dll_C0A41FC3CF6154EA.mvfrm
Library\Bee\artifacts\mvdfrm\UnityEditor.TextCoreTextEngineModule.dll_088C56355EE50E08.mvfrm
Library\Bee\artifacts\mvdfrm\UnityEditor.UIBuilderModule.dll_2236DA2D6AC9244E.mvfrm
Library\Bee\artifacts\mvdfrm\UnityEditor.UIElementsModule.dll_C800CE964E389CA8.mvfrm
Library\Bee\artifacts\mvdfrm\UnityEditor.UIElementsSamplesModule.dll_0443CF69147E0745.mvfrm
Library\Bee\artifacts\mvdfrm\UnityEditor.UnityConnectModule.dll_581CF1D538B421A2.mvfrm
Library\Bee\artifacts\mvdfrm\UnityEngine.AccessibilityModule.dll_DE014B6A9717179A.mvfrm
Library\Bee\artifacts\mvdfrm\UnityEngine.AIModule.dll_E616DF10DF0665C0.mvfrm
Library\Bee\artifacts\mvdfrm\UnityEngine.AndroidJNIModule.dll_4649B76997580B7E.mvfrm
Library\Bee\artifacts\mvdfrm\UnityEngine.AnimationModule.dll_9C33A939D26D7FC0.mvfrm
Library\Bee\artifacts\mvdfrm\UnityEngine.ARModule.dll_9F89A4143C23C489.mvfrm
Library\Bee\artifacts\mvdfrm\UnityEngine.AssetBundleModule.dll_294B341016CD0EEE.mvfrm
Library\Bee\artifacts\mvdfrm\UnityEngine.AudioModule.dll_E10965A57EE0F0B2.mvfrm
Library\Bee\artifacts\mvdfrm\UnityEngine.ClothModule.dll_47F1C2A058FDCF96.mvfrm
Library\Bee\artifacts\mvdfrm\UnityEngine.ClusterInputModule.dll_D7B966EAEA3BF468.mvfrm
Library\Bee\artifacts\mvdfrm\UnityEngine.ClusterRendererModule.dll_EA066688C74DE619.mvfrm
Library\Bee\artifacts\mvdfrm\UnityEngine.ContentLoadModule.dll_C2618D50E54FB6DB.mvfrm
Library\Bee\artifacts\mvdfrm\UnityEngine.CoreModule.dll_0A8B47A390026817.mvfrm
Library\Bee\artifacts\mvdfrm\UnityEngine.CrashReportingModule.dll_CC1EE0DE9295700F.mvfrm
Library\Bee\artifacts\mvdfrm\UnityEngine.DirectorModule.dll_0A1AA13F88DC83F4.mvfrm
Library\Bee\artifacts\mvdfrm\UnityEngine.dll_A25B2D271B1625CE.mvfrm
Library\Bee\artifacts\mvdfrm\UnityEngine.DSPGraphModule.dll_0F6C02A8FB3D5515.mvfrm
Library\Bee\artifacts\mvdfrm\UnityEngine.GameCenterModule.dll_709701845D98FC6F.mvfrm
Library\Bee\artifacts\mvdfrm\UnityEngine.GIModule.dll_7E53281E7AB54DDA.mvfrm
Library\Bee\artifacts\mvdfrm\UnityEngine.GridModule.dll_E7FC6391A856FE0E.mvfrm
Library\Bee\artifacts\mvdfrm\UnityEngine.HotReloadModule.dll_1D7C673FADA09B42.mvfrm
Library\Bee\artifacts\mvdfrm\UnityEngine.ImageConversionModule.dll_55F8643949729E0D.mvfrm
Library\Bee\artifacts\mvdfrm\UnityEngine.IMGUIModule.dll_1969050C45128493.mvfrm
Library\Bee\artifacts\mvdfrm\UnityEngine.InputLegacyModule.dll_BA904F2EAEBEC4DF.mvfrm
Library\Bee\artifacts\mvdfrm\UnityEngine.InputModule.dll_477F2D55F5191556.mvfrm
Library\Bee\artifacts\mvdfrm\UnityEngine.JSONSerializeModule.dll_3E18D4A696527824.mvfrm
Library\Bee\artifacts\mvdfrm\UnityEngine.LocalizationModule.dll_1606313D81B7E761.mvfrm
Library\Bee\artifacts\mvdfrm\UnityEngine.NVIDIAModule.dll_BDDEC92AB6189563.mvfrm
Library\Bee\artifacts\mvdfrm\UnityEngine.ParticleSystemModule.dll_1F312A2B00A6FB9D.mvfrm
Library\Bee\artifacts\mvdfrm\UnityEngine.PerformanceReportingModule.dll_BC84D99E68C9D3D6.mvfrm
Library\Bee\artifacts\mvdfrm\UnityEngine.Physics2DModule.dll_E8D9992A736A7755.mvfrm
Library\Bee\artifacts\mvdfrm\UnityEngine.PhysicsModule.dll_E8DFBAD0ACDD85C3.mvfrm
Library\Bee\artifacts\mvdfrm\UnityEngine.ProfilerModule.dll_3C60DA7622360B01.mvfrm
Library\Bee\artifacts\mvdfrm\UnityEngine.PropertiesModule.dll_9DD240C2D08460AB.mvfrm
Library\Bee\artifacts\mvdfrm\UnityEngine.RuntimeInitializeOnLoadManagerInitializerModule.dll_9503EFF4C5FA121E.mvfrm
Library\Bee\artifacts\mvdfrm\UnityEngine.ScreenCaptureModule.dll_5800822BAABEA486.mvfrm
Library\Bee\artifacts\mvdfrm\UnityEngine.SharedInternalsModule.dll_DA09A30EC0A0995D.mvfrm
Library\Bee\artifacts\mvdfrm\UnityEngine.SpriteMaskModule.dll_59C374147F0891E9.mvfrm
Library\Bee\artifacts\mvdfrm\UnityEngine.SpriteShapeModule.dll_42AC616ACC6F46F8.mvfrm
Library\Bee\artifacts\mvdfrm\UnityEngine.StreamingModule.dll_50C8968A21F536FE.mvfrm
Library\Bee\artifacts\mvdfrm\UnityEngine.SubstanceModule.dll_2D73AAD36D48350C.mvfrm
Library\Bee\artifacts\mvdfrm\UnityEngine.SubsystemsModule.dll_C470DA764D5079FC.mvfrm
Library\Bee\artifacts\mvdfrm\UnityEngine.TerrainModule.dll_0326363F829BCEB1.mvfrm
Library\Bee\artifacts\mvdfrm\UnityEngine.TerrainPhysicsModule.dll_1FABD2FE19E9F62A.mvfrm
Library\Bee\artifacts\mvdfrm\UnityEngine.TextCoreFontEngineModule.dll_3F039B16E25F13B5.mvfrm
Library\Bee\artifacts\mvdfrm\UnityEngine.TextCoreTextEngineModule.dll_86EBD18871E2CCD3.mvfrm
Library\Bee\artifacts\mvdfrm\UnityEngine.TextRenderingModule.dll_813FF43661F6247B.mvfrm
Library\Bee\artifacts\mvdfrm\UnityEngine.TilemapModule.dll_A2229DC09A58AFBA.mvfrm
Library\Bee\artifacts\mvdfrm\UnityEngine.TLSModule.dll_2D401BEED2E82DD7.mvfrm
Library\Bee\artifacts\mvdfrm\UnityEngine.UIElementsModule.dll_C8AF3BDE507CB5F3.mvfrm
Library\Bee\artifacts\mvdfrm\UnityEngine.UIModule.dll_E18A7D3E3B4D6B6C.mvfrm
Library\Bee\artifacts\mvdfrm\UnityEngine.UmbraModule.dll_5BDE11BE0C079C25.mvfrm
Library\Bee\artifacts\mvdfrm\UnityEngine.UnityAnalyticsCommonModule.dll_57C396E282B27234.mvfrm
Library\Bee\artifacts\mvdfrm\UnityEngine.UnityAnalyticsModule.dll_3ED09AF4ACCE4D99.mvfrm
Library\Bee\artifacts\mvdfrm\UnityEngine.UnityConnectModule.dll_457C75E4333C224D.mvfrm
Library\Bee\artifacts\mvdfrm\UnityEngine.UnityCurlModule.dll_CF504A6B428171AD.mvfrm
Library\Bee\artifacts\mvdfrm\UnityEngine.UnityTestProtocolModule.dll_C006855B6E795C9B.mvfrm
Library\Bee\artifacts\mvdfrm\UnityEngine.UnityWebRequestAssetBundleModule.dll_194A5A6A769D7B2A.mvfrm
Library\Bee\artifacts\mvdfrm\UnityEngine.UnityWebRequestAudioModule.dll_34812D7CEF349E6E.mvfrm
Library\Bee\artifacts\mvdfrm\UnityEngine.UnityWebRequestModule.dll_67976BE35467388C.mvfrm
Library\Bee\artifacts\mvdfrm\UnityEngine.UnityWebRequestTextureModule.dll_5142C6E28D696E03.mvfrm
Library\Bee\artifacts\mvdfrm\UnityEngine.UnityWebRequestWWWModule.dll_51AE16E461A2893F.mvfrm
Library\Bee\artifacts\mvdfrm\UnityEngine.VehiclesModule.dll_81DD9ABF0306538F.mvfrm
Library\Bee\artifacts\mvdfrm\UnityEngine.VFXModule.dll_AE1EB45DA9559744.mvfrm
Library\Bee\artifacts\mvdfrm\UnityEngine.VideoModule.dll_0612EA1041730C57.mvfrm
Library\Bee\artifacts\mvdfrm\UnityEngine.VirtualTexturingModule.dll_6A42FA608D92EBF5.mvfrm
Library\Bee\artifacts\mvdfrm\UnityEngine.VRModule.dll_345CA3C3DD07F0E4.mvfrm
Library\Bee\artifacts\mvdfrm\UnityEngine.WindModule.dll_80DA22CC2138E680.mvfrm
Library\Bee\artifacts\mvdfrm\UnityEngine.XRModule.dll_671B66C866423E42.mvfrm
Library\Bee\artifacts\mvdfrm\UnityEditor.WindowsStandalone.Extensions.dll_3D20672A9291CF74.mvfrm
Library\Bee\artifacts\mvdfrm\Unity.Plastic.Antlr3.Runtime.dll_DBC5D081C4D6AF26.mvfrm
Library\Bee\artifacts\mvdfrm\Unity.Plastic.Newtonsoft.Json.dll_B06B77423C8110AF.mvfrm
Library\Bee\artifacts\mvdfrm\Unity.Collections.LowLevel.ILSupport.dll_2E40CE80E145E521.mvfrm
Library\Bee\artifacts\mvdfrm\Unity.VisualScripting.IonicZip.dll_BE5647D59BA90757.mvfrm
Library\Bee\artifacts\mvdfrm\Unity.VisualScripting.YamlDotNet.dll_73B4528AAC4BDD55.mvfrm
Library\Bee\artifacts\mvdfrm\Unity.VisualScripting.TextureAssets.dll_0AD27BDE6D193B4D.mvfrm
Library\Bee\artifacts\mvdfrm\Unity.VisualScripting.Antlr3.Runtime.dll_2521796BDD14ED74.mvfrm